\relax 
\providecommand\hyper@newdestlabel[2]{}
\providecommand\HyperFirstAtBeginDocument{\AtBeginDocument}
\HyperFirstAtBeginDocument{\ifx\hyper@anchor\@undefined
\global\let\oldcontentsline\contentsline
\gdef\contentsline#1#2#3#4{\oldcontentsline{#1}{#2}{#3}}
\global\let\oldnewlabel\newlabel
\gdef\newlabel#1#2{\newlabelxx{#1}#2}
\gdef\newlabelxx#1#2#3#4#5#6{\oldnewlabel{#1}{{#2}{#3}}}
\AtEndDocument{\ifx\hyper@anchor\@undefined
\let\contentsline\oldcontentsline
\let\newlabel\oldnewlabel
\fi}
\fi}
\global\let\hyper@last\relax 
\gdef\HyperFirstAtBeginDocument#1{#1}
\providecommand\HyField@AuxAddToFields[1]{}
\providecommand\HyField@AuxAddToCoFields[2]{}
\citation{Teshukov2007}
\citation{Sergey2018}
\citation{Sergey2018}
\citation{Sergey2018}
\citation{Sergey2018}
\citation{DalMaso1995}
\citation{Godunov}
\citation{munoz2007}
\@writefile{toc}{\contentsline {section}{\numberline {1} Introduction}{1}{section.1}}
\citation{BalsaraMHD2016}
\citation{Dumbser2016}
\citation{Balsara2018}
\citation{Teshukov2007}
\citation{Sergey2018}
\citation{Richard2013}
\citation{Sergey2018}
\citation{Tokareva201645}
\citation{Toro20121}
\citation{Toro201580}
\citation{Sergey2018}
\citation{Sergey2018}
\citation{Sergey2018}
\@writefile{toc}{\contentsline {section}{\numberline {2}Dissipative model}{2}{section.2}}
\newlabel{modelBase}{{2.1}{2}{Dissipative model}{equation.2.1}{}}
\citation{Richard2013}
\citation{Toro}
\citation{Sergey2018}
\citation{Sergey2018}
\citation{Godunov}
\newlabel{energy_conservation}{{2.2}{3}{Dissipative model}{equation.2.2}{}}
\newlabel{ConsS}{{2.3}{3}{Dissipative model}{equation.2.3}{}}
\newlabel{model_dissipative}{{2.4}{3}{Dissipative model}{equation.2.4}{}}
\@writefile{toc}{\contentsline {section}{\numberline {3}Non-dissipative model}{3}{section.3}}
\newlabel{model_nondissipative}{{3.1}{3}{Non-dissipative model}{equation.3.1}{}}
\@writefile{toc}{\contentsline {subsection}{\numberline {3.1}Riemann Problem }{4}{subsection.3.1}}
\newlabel{Quasi1D}{{3.3}{4}{Riemann Problem }{equation.3.3}{}}
\citation{Godunov}
\@writefile{toc}{\contentsline {subsection}{\numberline {3.2}Splitting}{5}{subsection.3.2}}
\citation{Sergey2018}
\citation{Sergey2018}
\newlabel{eigenvaluesslpit}{{3.8}{6}{Splitting}{equation.3.8}{}}
\newlabel{b_Waves}{{3.9}{6}{Splitting}{equation.3.9}{}}
\newlabel{a_Waves}{{3.10}{6}{Splitting}{equation.3.10}{}}
\citation{Sergey2018}
\@writefile{toc}{\contentsline {subsection}{\numberline {3.3}Exact Riemann solver for the shear sub-system (\ref  {b_Waves})}{7}{subsection.3.3}}
\@writefile{toc}{\contentsline {subsection}{\numberline {3.4}HLL-like Riemann solver for the acoustic sub-system (\ref  {a_Waves}).}{8}{subsection.3.4}}
\newlabel{relationA}{{3.18}{9}{HLL-like Riemann solver for the acoustic sub-system (\ref {a_Waves})}{equation.3.18}{}}
\newlabel{relationB}{{3.19}{9}{HLL-like Riemann solver for the acoustic sub-system (\ref {a_Waves})}{equation.3.18}{}}
\newlabel{relationC}{{3.20}{9}{HLL-like Riemann solver for the acoustic sub-system (\ref {a_Waves})}{equation.3.20}{}}
\newlabel{ineqS}{{3.21}{10}{HLL-like Riemann solver for the acoustic sub-system (\ref {a_Waves})}{equation.3.21}{}}
\citation{Sergey2018}
\citation{Sergey2018}
\citation{Sergey2018}
\citation{Sergey2018}
\newlabel{relationD}{{3.23}{11}{HLL-like Riemann solver for the acoustic sub-system (\ref {a_Waves})}{equation.3.23}{}}
\@writefile{toc}{\contentsline {subsection}{\numberline {3.5} Fluctuation Splitting solver }{11}{subsection.3.5}}
\@writefile{toc}{\contentsline {section}{\numberline {4} Numerical Strategy }{12}{section.4}}
\@writefile{toc}{\contentsline {subsection}{\numberline {4.1}One dimensional (1D) case }{12}{subsection.4.1}}
\@writefile{toc}{\contentsline {subsection}{\numberline {4.2}Multidimensional case}{12}{subsection.4.2}}
\citation{BalsaraMHD2016}
\citation{Toro}
\newlabel{transform}{{4.2}{13}{Multidimensional case}{equation.4.2}{}}
\@writefile{toc}{\contentsline {paragraph}{ Update of the local state $ \pmb  {\text  {Q}}_{ij}^{n+1}$ :}{13}{equation.4.2}}
\newlabel{strategy}{{4.7}{13}{ Update of the local state $\EtatM _{ij}^{n+1}$ :}{equation.4.7}{}}
\citation{Sergey2018}
\@writefile{toc}{\contentsline {section}{\numberline {5} Numerical Tests }{14}{section.5}}
\@writefile{toc}{\contentsline {subsection}{\numberline {5.1}Convergence}{15}{subsection.5.1}}
\@writefile{toc}{\contentsline {subsection}{\numberline {5.2}1D shear test}{15}{subsection.5.2}}
\@writefile{toc}{\contentsline {subsection}{\numberline {5.3}1D dam break test}{15}{subsection.5.3}}
\citation{Brock1969}
\citation{Chesnokov20171}
\citation{Leng2015}
\citation{Ivanova2017}
\citation{Brock1969}
\citation{Brock1970}
\citation{Brock1969}
\citation{Brock1970}
\citation{Sergey2018}
\citation{Sergey2018}
\@writefile{toc}{\contentsline {subsection}{\numberline {5.4}1D roll waves}{16}{subsection.5.4}}
\@writefile{toc}{\contentsline {subsection}{\numberline {5.5}2D roll waves}{16}{subsection.5.5}}
\citation{Leng2015}
\citation{Teshukov2007}
\citation{Sergey2018}
\citation{Sergey2018}
\citation{Sergey2018}
\citation{Sergey2018}
\citation{Ketcheson2013}
\citation{Sergey2018}
\citation{Dumbser2016}
\citation{Balsara2016}
\citation{Vides2015}
\bibstyle{plain}
\bibdata{Biblio}
\bibcite{Balsara2018}{1}
\bibcite{BalsaraMHD2016}{2}
\bibcite{Brock1969}{3}
\bibcite{Brock1970}{4}
\bibcite{Chesnokov20171}{5}
\bibcite{Dumbser2016}{6}
\bibcite{Sergey2018}{7}
\@writefile{toc}{\contentsline {section}{\numberline {6}Conclusion}{18}{section.6}}
\bibcite{Godunov}{8}
\bibcite{Ivanova2017}{9}
\bibcite{Leng2015}{10}
\bibcite{DalMaso1995}{11}
\bibcite{munoz2007}{12}
\bibcite{Richard2013}{13}
\bibcite{Teshukov2007}{14}
\bibcite{Tokareva201645}{15}
\bibcite{Toro}{16}
\bibcite{Toro20121}{17}
\bibcite{Toro201580}{18}
\bibcite{Ketcheson2013}{19}
\bibcite{Sergey2018}{20}
\bibcite{Balsara2016}{21}
\bibcite{Vides2015}{22}
\@writefile{lof}{\contentsline {figure}{\numberline {1}{\ignorespaces \leavevmode {\color  {red}Sketch showing sub-cells formed in a triangular cell ${\cal  C}_i$ (in red color). Each sub-cell ${\cal  C}_{ij_k}$ shares an edge with cells ${\cal  C}_{j_k}$ (cells surrounding a cell ${\cal  C}_i$). The normal vector $\pmb  {\eta }_{ij_k}$ to the edge directs from the cell ${\cal  C}_i$ to ${\cal  C}_{j_k}$. Note that $\pmb  {\eta }_{j_ki} = -\pmb  {\eta }_{ij_k}$} \relax }}{20}{figure.caption.1}}
\providecommand*\caption@xref[2]{\@setref\relax\@undefined{#1}}
\newlabel{sub_cells}{{1}{20}{\respB {Sketch showing sub-cells formed in a triangular cell $\Cell _i$ (in red color). Each sub-cell $\Cell _{ij_k}$ shares an edge with cells $\Cell _{j_k}$ (cells surrounding a cell $\Cell _i$). The normal vector $\vno _{ij_k}$ to the edge directs from the cell $\Cell _i$ to $\Cell _{j_k}$. Note that $\vno _{j_ki} = -\vno _{ij_k}$} \relax }{figure.caption.1}{}}
\@writefile{lof}{\contentsline {figure}{\numberline {2}{\ignorespaces Structured quadrangular mesh : $L_1$ and $L_2$-norm of the errors ($E$) plotted versus mesh size ($\delta h$) plotted on log-log scale at $t = 10 \tmspace  +\thinmuskip {.1667em} s$. \relax }}{21}{figure.caption.2}}
\newlabel{Squad:Exact2D}{{2}{21}{Structured quadrangular mesh : $L_1$ and $L_2$-norm of the errors ($E$) plotted versus mesh size ($\delta h$) plotted on log-log scale at $t = 10 \, s$. \relax }{figure.caption.2}{}}
\@writefile{lof}{\contentsline {figure}{\numberline {3}{\ignorespaces Structured (quasi) triangular mesh : $L_1$ and $L_2$-norm of the errors ($E$) plotted versus mesh size ($\delta h$) plotted on log-log scale at $t = 10 \tmspace  +\thinmuskip {.1667em} s$.\relax }}{22}{figure.caption.3}}
\newlabel{Stria:Exact2D}{{3}{22}{Structured (quasi) triangular mesh : $L_1$ and $L_2$-norm of the errors ($E$) plotted versus mesh size ($\delta h$) plotted on log-log scale at $t = 10 \, s$.\relax }{figure.caption.3}{}}
\@writefile{lof}{\contentsline {figure}{\numberline {4}{\ignorespaces Unstructured quadrangular mesh : $L_1$ and $L_2$-norm of the errors ($E$) plotted versus mesh size ($\delta h$) plotted on log-log scale at $t = 10 \tmspace  +\thinmuskip {.1667em} s$. \relax }}{23}{figure.caption.4}}
\newlabel{Uquad:Exact2D}{{4}{23}{Unstructured quadrangular mesh : $L_1$ and $L_2$-norm of the errors ($E$) plotted versus mesh size ($\delta h$) plotted on log-log scale at $t = 10 \, s$. \relax }{figure.caption.4}{}}
\@writefile{lof}{\contentsline {figure}{\numberline {5}{\ignorespaces Unstructured triangular mesh : $L_1$ and $L_2$-norm of the errors ($E$) plotted versus mesh size ($\delta h$) plotted on log-log scale at $t = 10 \tmspace  +\thinmuskip {.1667em} s$.\relax }}{24}{figure.caption.5}}
\newlabel{Utria:Exact2D}{{5}{24}{Unstructured triangular mesh : $L_1$ and $L_2$-norm of the errors ($E$) plotted versus mesh size ($\delta h$) plotted on log-log scale at $t = 10 \, s$.\relax }{figure.caption.5}{}}
\@writefile{lof}{\contentsline {figure}{\numberline {6}{\ignorespaces Numerical solution of 1D shear test showing $v$, $\mathbb  {P}_{xy}$ and $\mathbb  {P}_{yy}$ on the different grids with 100, 500 and 10000 grid cells. The CFL is specified as 0.5.\relax }}{25}{figure.caption.6}}
\newlabel{shear_fig}{{6}{25}{Numerical solution of 1D shear test showing $v$, $\mathbb {P}_{xy}$ and $\mathbb {P}_{yy}$ on the different grids with 100, 500 and 10000 grid cells. The CFL is specified as 0.5.\relax }{figure.caption.6}{}}
\@writefile{lof}{\contentsline {figure}{\numberline {7}{\ignorespaces Numerical solution of 1D dam-break test showing $h$, $u$ and $\mathbb  {P}_{xx}$ on the different grids with 100, 500 and 10000 grid cells. The CFL is specified as 0.5.\relax }}{26}{figure.caption.7}}
\newlabel{damb_fig}{{7}{26}{Numerical solution of 1D dam-break test showing $h$, $u$ and $\mathbb {P}_{xx}$ on the different grids with 100, 500 and 10000 grid cells. The CFL is specified as 0.5.\relax }{figure.caption.7}{}}
\@writefile{lof}{\contentsline {figure}{\numberline {8}{\ignorespaces Absolute of the difference between $h$-profiles obtained by Euler's and $RK4$ time-integration for the purely dissipative model. Both computations are performed using 1000 grid cells and CFL = 0.8. The plot is shown for the solution at time $t = 25 \tmspace  +\thinmuskip {.1667em} s$.\relax }}{27}{figure.caption.8}}
\newlabel{Roll1D_diff}{{8}{27}{Absolute of the difference between $h$-profiles obtained by Euler's and $RK4$ time-integration for the purely dissipative model. Both computations are performed using 1000 grid cells and CFL = 0.8. The plot is shown for the solution at time $t = 25 \, s$.\relax }{figure.caption.8}{}}
\@writefile{lof}{\contentsline {figure}{\numberline {9}{\ignorespaces Comparison of numerically obtained 1D roll wave profile for the depth and the Brock's experimental data. The numerical profile shown here is obtained with 1000 grid cells and CFL = 0.8 at the time instant $t = 25.11 \tmspace  +\thinmuskip {.1667em} s$. \relax }}{27}{figure.caption.9}}
\newlabel{Roll1D_Brock}{{9}{27}{Comparison of numerically obtained 1D roll wave profile for the depth and the Brock's experimental data. The numerical profile shown here is obtained with 1000 grid cells and CFL = 0.8 at the time instant $t = 25.11 \, s$. \relax }{figure.caption.9}{}}
\@writefile{lof}{\contentsline {figure}{\numberline {10}{\ignorespaces Numerical solution for 1D Roll wave problem at the time instant $t = 25 \tmspace  +\thinmuskip {.1667em} s$ with 1000 grid cells and CFL = 0.8. \relax }}{28}{figure.caption.10}}
\newlabel{Roll1D}{{10}{28}{Numerical solution for 1D Roll wave problem at the time instant $t = 25 \, s$ with 1000 grid cells and CFL = 0.8. \relax }{figure.caption.10}{}}
\@writefile{lof}{\contentsline {figure}{\numberline {11}{\ignorespaces 2D roll waves : The depth ($h$) profile showing stable transverse structures at the time $t = 57.8 \tmspace  +\thinmuskip {.1667em} s$ on structured quadrangular grid with $1000 \times 400$ points and CFL = 0.4.\relax }}{28}{figure.caption.11}}
\newlabel{Roll2D_transverse}{{11}{28}{2D roll waves : The depth ($h$) profile showing stable transverse structures at the time $t = 57.8 \, s$ on structured quadrangular grid with $1000 \times 400$ points and CFL = 0.4.\relax }{figure.caption.11}{}}
\@writefile{lof}{\contentsline {figure}{\numberline {12}{\ignorespaces 2D roll waves : Top view of 2D roll waves with stable transverse structures at the time $t = 57.8 \tmspace  +\thinmuskip {.1667em} s$ on structured quadrangular grid with $1000 \times 400$ points and CFL = 0.4.\relax }}{29}{figure.caption.12}}
\newlabel{Squad:RW}{{12}{29}{2D roll waves : Top view of 2D roll waves with stable transverse structures at the time $t = 57.8 \, s$ on structured quadrangular grid with $1000 \times 400$ points and CFL = 0.4.\relax }{figure.caption.12}{}}
\@writefile{lof}{\contentsline {figure}{\numberline {13}{\ignorespaces 2D roll waves : Evolution of stable transverse structures on structured quadrangular grid with $1000 \times 400$ points and CFL = 0.4.\relax }}{29}{figure.caption.13}}
\newlabel{Squad:evol}{{13}{29}{2D roll waves : Evolution of stable transverse structures on structured quadrangular grid with $1000 \times 400$ points and CFL = 0.4.\relax }{figure.caption.13}{}}
\@writefile{lof}{\contentsline {figure}{\numberline {14}{\ignorespaces 2D roll waves : The curves of time steps $\delta t$ plotted versus time $t$ for the simulations of 2D roll waves on structured quadrangular grid with $1000 \times 400$ points. Sharp decrease in each curve denote the onset of transverse waves.\relax }}{30}{figure.caption.14}}
\newlabel{time series}{{14}{30}{2D roll waves : The curves of time steps $\delta \ct $ plotted versus time $t$ for the simulations of 2D roll waves on structured quadrangular grid with $1000 \times 400$ points. Sharp decrease in each curve denote the onset of transverse waves.\relax }{figure.caption.14}{}}
\@writefile{lof}{\contentsline {figure}{\numberline {15}{\ignorespaces 2D roll waves : The depth ($h$) profile at time $t=40 \tmspace  +\thinmuskip {.1667em} s$ obtained on structured triangular grids with 206562 cells and CFL = 0.4. Top and bottom frames show results obtained on the grid with rectangles split in same and alternate orientation, respectively.\relax }}{31}{figure.caption.15}}
\newlabel{Stria}{{15}{31}{2D roll waves : The depth ($h$) profile at time $t=40 \, s$ obtained on structured triangular grids with 206562 cells and CFL = 0.4. Top and bottom frames show results obtained on the grid with rectangles split in same and alternate orientation, respectively.\relax }{figure.caption.15}{}}
\@writefile{lof}{\contentsline {figure}{\numberline {16}{\ignorespaces 2D roll waves : The depth ($h$) profile at time $t = 40 \tmspace  +\thinmuskip {.1667em} s$ obtained with CFL = 0.4 on the unstructured quadrangular grid with 173251 cells (top) and on the unstructured triangular grid with 172898 cells (bottom).\relax }}{32}{figure.caption.16}}
\newlabel{U:RV}{{16}{32}{2D roll waves : The depth ($h$) profile at time $t = 40 \, s$ obtained with CFL = 0.4 on the unstructured quadrangular grid with 173251 cells (top) and on the unstructured triangular grid with 172898 cells (bottom).\relax }{figure.caption.16}{}}
