\relax 
\providecommand\hyper@newdestlabel[2]{}
\providecommand\HyperFirstAtBeginDocument{\AtBeginDocument}
\HyperFirstAtBeginDocument{\ifx\hyper@anchor\@undefined
\global\let\oldcontentsline\contentsline
\gdef\contentsline#1#2#3#4{\oldcontentsline{#1}{#2}{#3}}
\global\let\oldnewlabel\newlabel
\gdef\newlabel#1#2{\newlabelxx{#1}#2}
\gdef\newlabelxx#1#2#3#4#5#6{\oldnewlabel{#1}{{#2}{#3}}}
\AtEndDocument{\ifx\hyper@anchor\@undefined
\let\contentsline\oldcontentsline
\let\newlabel\oldnewlabel
\fi}
\fi}
\global\let\hyper@last\relax 
\gdef\HyperFirstAtBeginDocument#1{#1}
\providecommand\HyField@AuxAddToFields[1]{}
\providecommand\HyField@AuxAddToCoFields[2]{}
\citation{Ketcheson2013}
\citation{Balsara2016}
\citation{Vides2015}
\citation{Sergey2018}
\bibcite{Ketcheson2013}{1}
\bibcite{Balsara2016}{2}
\bibcite{Vides2015}{3}
\bibcite{Sergey2018}{4}
\@writefile{lof}{\contentsline {figure}{\numberline {1}{\ignorespaces Numerical solution of 1D dam-break test showing $h$, $u$ and $\mathbb  {P}_{xx}$ (with first order scheme) on the different grids with 100, 500 and 2000 grid cells. The CFL is specified as 0.9.\relax }}{5}{figure.caption.1}}
\providecommand*\caption@xref[2]{\@setref\relax\@undefined{#1}}
\newlabel{damb1d}{{1}{5}{Numerical solution of 1D dam-break test showing $h$, $u$ and $\mathbb {P}_{xx}$ (with first order scheme) on the different grids with 100, 500 and 2000 grid cells. The CFL is specified as 0.9.\relax }{figure.caption.1}{}}
\@writefile{lof}{\contentsline {figure}{\numberline {2}{\ignorespaces Comparison of the numerical solutions of 1D shear test case showing $v$, $\mathbb  {P}_{xy}$ and $\mathbb  {P}_{yy}$ with first and second order scheme with 500 grid points. The time-step is specified as 0.001.\relax }}{6}{figure.caption.2}}
\newlabel{shear1d_comp}{{2}{6}{Comparison of the numerical solutions of 1D shear test case showing $v$, $\mathbb {P}_{xy}$ and $\mathbb {P}_{yy}$ with first and second order scheme with 500 grid points. The time-step is specified as 0.001.\relax }{figure.caption.2}{}}
\@writefile{lof}{\contentsline {figure}{\numberline {3}{\ignorespaces Comparison of the numerical solutions of 1D dam break test case showing $h$, $u$ and $\mathbb  {P}_{xx}$ with first and second order scheme with 500 grid points. The time-step is specified as 0.0001\relax }}{7}{figure.caption.3}}
\newlabel{damb1d_comp}{{3}{7}{Comparison of the numerical solutions of 1D dam break test case showing $h$, $u$ and $\mathbb {P}_{xx}$ with first and second order scheme with 500 grid points. The time-step is specified as 0.0001\relax }{figure.caption.3}{}}
